EESchema Schematic File Version 4
EELAYER 30 0
EELAYER END
$Descr A4 11693 8268
encoding utf-8
Sheet 1 1
Title ""
Date ""
Rev ""
Comp ""
Comment1 ""
Comment2 ""
Comment3 ""
Comment4 ""
$EndDescr
$Comp
L Connector:USB_B_Micro J3
U 1 1 5E6E85B3
P 7525 4150
F 0 "J3" H 7295 4047 50  0000 R CNN
F 1 "USB_B_Micro" H 7295 4138 50  0000 R CNN
F 2 "Connector_USB:USB_Micro-B_Molex_47346-0001" H 7675 4100 50  0001 C CNN
F 3 "~" H 7675 4100 50  0001 C CNN
	1    7525 4150
	-1   0    0    1   
$EndComp
$Comp
L Device:R_Small R7
U 1 1 5E6EA4D5
P 6250 4150
F 0 "R7" V 6100 4150 50  0000 C CNN
F 1 "0" V 6175 4150 50  0000 C CNN
F 2 "Resistor_SMD:R_0603_1608Metric_Pad1.05x0.95mm_HandSolder" H 6250 4150 50  0001 C CNN
F 3 "~" H 6250 4150 50  0001 C CNN
	1    6250 4150
	0    -1   -1   0   
$EndComp
$Comp
L Device:R_Small R6
U 1 1 5E6EA868
P 6250 4050
F 0 "R6" V 6054 4050 50  0000 C CNN
F 1 "0" V 6145 4050 50  0000 C CNN
F 2 "Resistor_SMD:R_0603_1608Metric_Pad1.05x0.95mm_HandSolder" H 6250 4050 50  0001 C CNN
F 3 "~" H 6250 4050 50  0001 C CNN
	1    6250 4050
	0    1    1    0   
$EndComp
Wire Wire Line
	5575 4050 5875 4050
Wire Wire Line
	5875 4050 5875 4100
Wire Wire Line
	5875 4100 6075 4100
Wire Wire Line
	6075 4100 6075 4150
Wire Wire Line
	6075 4150 6150 4150
Wire Wire Line
	5925 4150 5925 4075
Wire Wire Line
	5925 4075 6125 4075
Wire Wire Line
	6125 4075 6125 4050
Wire Wire Line
	6125 4050 6150 4050
Wire Wire Line
	6350 4050 6625 4050
Wire Wire Line
	6350 4150 6875 4150
$Comp
L Device:C C7
U 1 1 5E6ECA5F
P 6875 4550
F 0 "C7" H 6990 4596 50  0000 L CNN
F 1 "20p" H 6990 4505 50  0000 L CNN
F 2 "Capacitor_SMD:C_0603_1608Metric_Pad1.05x0.95mm_HandSolder" H 6913 4400 50  0001 C CNN
F 3 "~" H 6875 4550 50  0001 C CNN
	1    6875 4550
	1    0    0    -1  
$EndComp
$Comp
L Device:C C6
U 1 1 5E6ECEB0
P 6625 4825
F 0 "C6" H 6740 4871 50  0000 L CNN
F 1 "20p" H 6740 4780 50  0000 L CNN
F 2 "Capacitor_SMD:C_0603_1608Metric_Pad1.05x0.95mm_HandSolder" H 6663 4675 50  0001 C CNN
F 3 "~" H 6625 4825 50  0001 C CNN
	1    6625 4825
	1    0    0    -1  
$EndComp
Wire Wire Line
	6625 4050 6625 4675
Connection ~ 6625 4050
Wire Wire Line
	6625 4050 7225 4050
Wire Wire Line
	6875 4150 6875 4400
Connection ~ 6875 4150
Wire Wire Line
	6875 4150 7225 4150
$Comp
L power:GND #PWR0101
U 1 1 5E6ED9D4
P 6625 5200
F 0 "#PWR0101" H 6625 4950 50  0001 C CNN
F 1 "GND" H 6630 5027 50  0000 C CNN
F 2 "" H 6625 5200 50  0001 C CNN
F 3 "" H 6625 5200 50  0001 C CNN
	1    6625 5200
	1    0    0    -1  
$EndComp
$Comp
L power:GND #PWR0102
U 1 1 5E6EE2DA
P 6875 4925
F 0 "#PWR0102" H 6875 4675 50  0001 C CNN
F 1 "GND" H 6880 4752 50  0000 C CNN
F 2 "" H 6875 4925 50  0001 C CNN
F 3 "" H 6875 4925 50  0001 C CNN
	1    6875 4925
	1    0    0    -1  
$EndComp
Wire Wire Line
	6875 4925 6875 4700
Wire Wire Line
	6625 4975 6625 5200
Wire Wire Line
	5575 4150 5750 4150
$Comp
L Device:Crystal Y1
U 1 1 5E6EFEC5
P 2300 3800
F 0 "Y1" V 2346 3669 50  0000 R CNN
F 1 "Crystal" V 2255 3669 50  0000 R CNN
F 2 "Crystal:Crystal_SMD_0603-2Pin_6.0x3.5mm_HandSoldering" H 2300 3800 50  0001 C CNN
F 3 "~" H 2300 3800 50  0001 C CNN
	1    2300 3800
	0    -1   -1   0   
$EndComp
$Comp
L Device:R_Small R1
U 1 1 5E6F1947
P 2800 3800
F 0 "R1" V 2604 3800 50  0000 C CNN
F 1 "0" V 2695 3800 50  0000 C CNN
F 2 "Resistor_SMD:R_0603_1608Metric_Pad1.05x0.95mm_HandSolder" H 2800 3800 50  0001 C CNN
F 3 "~" H 2800 3800 50  0001 C CNN
	1    2800 3800
	-1   0    0    1   
$EndComp
$Comp
L Device:C C2
U 1 1 5E6F1D38
P 1900 3600
F 0 "C2" V 1648 3600 50  0000 C CNN
F 1 "12p" V 1739 3600 50  0000 C CNN
F 2 "Capacitor_SMD:C_0603_1608Metric_Pad1.05x0.95mm_HandSolder" H 1938 3450 50  0001 C CNN
F 3 "~" H 1900 3600 50  0001 C CNN
	1    1900 3600
	0    1    1    0   
$EndComp
$Comp
L Device:C C1
U 1 1 5E6F25EA
P 1875 4000
F 0 "C1" V 1623 4000 50  0000 C CNN
F 1 "12p" V 1714 4000 50  0000 C CNN
F 2 "Capacitor_SMD:C_0603_1608Metric_Pad1.05x0.95mm_HandSolder" H 1913 3850 50  0001 C CNN
F 3 "~" H 1875 4000 50  0001 C CNN
	1    1875 4000
	0    1    1    0   
$EndComp
$Comp
L power:GND #PWR0103
U 1 1 5E6F2DC0
P 1500 3800
F 0 "#PWR0103" H 1500 3550 50  0001 C CNN
F 1 "GND" V 1505 3672 50  0000 R CNN
F 2 "" H 1500 3800 50  0001 C CNN
F 3 "" H 1500 3800 50  0001 C CNN
	1    1500 3800
	0    1    1    0   
$EndComp
Wire Wire Line
	1500 3800 1600 3800
Wire Wire Line
	1600 3800 1600 3600
Wire Wire Line
	1600 3600 1750 3600
Wire Wire Line
	1600 3800 1600 4000
Wire Wire Line
	1600 4000 1725 4000
Connection ~ 1600 3800
Wire Wire Line
	2050 3600 2300 3600
Wire Wire Line
	2800 3600 2800 3700
Wire Wire Line
	2025 4000 2300 4000
Wire Wire Line
	2800 4000 2800 3900
Wire Wire Line
	2300 3950 2300 4000
Connection ~ 2300 4000
Wire Wire Line
	2300 4000 2800 4000
Wire Wire Line
	2300 3650 2300 3600
Connection ~ 2300 3600
Wire Wire Line
	2300 3600 2800 3600
$Comp
L Device:R_Small R3
U 1 1 5E6FBE97
P 3350 3850
F 0 "R3" V 3200 3850 50  0000 C CNN
F 1 "0" V 3275 3850 50  0000 C CNN
F 2 "Resistor_SMD:R_0603_1608Metric_Pad1.05x0.95mm_HandSolder" H 3350 3850 50  0001 C CNN
F 3 "~" H 3350 3850 50  0001 C CNN
	1    3350 3850
	0    -1   -1   0   
$EndComp
$Comp
L Device:R_Small R2
U 1 1 5E6FBEA1
P 3350 3750
F 0 "R2" V 3154 3750 50  0000 C CNN
F 1 "0" V 3245 3750 50  0000 C CNN
F 2 "Resistor_SMD:R_0603_1608Metric_Pad1.05x0.95mm_HandSolder" H 3350 3750 50  0001 C CNN
F 3 "~" H 3350 3750 50  0001 C CNN
	1    3350 3750
	0    1    1    0   
$EndComp
Wire Wire Line
	3250 3750 3150 3750
Wire Wire Line
	3150 3750 3150 3600
Wire Wire Line
	3150 3600 2800 3600
Connection ~ 2800 3600
Wire Wire Line
	3250 3850 3150 3850
Wire Wire Line
	3150 3850 3150 4000
Wire Wire Line
	3150 4000 2800 4000
Connection ~ 2800 4000
$Comp
L Device:R_Small R4
U 1 1 5E7022CB
P 4300 4250
F 0 "R4" V 4150 4250 50  0000 C CNN
F 1 "10k" V 4225 4250 50  0000 C CNN
F 2 "Resistor_SMD:R_0603_1608Metric_Pad1.05x0.95mm_HandSolder" H 4300 4250 50  0001 C CNN
F 3 "~" H 4300 4250 50  0001 C CNN
	1    4300 4250
	1    0    0    -1  
$EndComp
Wire Wire Line
	4300 4150 4300 4050
Wire Wire Line
	4300 4050 4375 4050
$Comp
L power:+3V3 #PWR0104
U 1 1 5E70A6A7
P 4300 4475
F 0 "#PWR0104" H 4300 4325 50  0001 C CNN
F 1 "+3V3" H 4315 4648 50  0000 C CNN
F 2 "" H 4300 4475 50  0001 C CNN
F 3 "" H 4300 4475 50  0001 C CNN
	1    4300 4475
	-1   0    0    1   
$EndComp
Wire Wire Line
	4300 4475 4300 4350
$Comp
L Device:C C4
U 1 1 5E70FD49
P 4250 1775
F 0 "C4" H 4135 1729 50  0000 R CNN
F 1 "12p" H 4135 1820 50  0000 R CNN
F 2 "Capacitor_SMD:C_0603_1608Metric_Pad1.05x0.95mm_HandSolder" H 4288 1625 50  0001 C CNN
F 3 "~" H 4250 1775 50  0001 C CNN
	1    4250 1775
	-1   0    0    1   
$EndComp
$Comp
L Device:C C3
U 1 1 5E71051D
P 3875 1775
F 0 "C3" H 3760 1729 50  0000 R CNN
F 1 "12p" H 3760 1820 50  0000 R CNN
F 2 "Capacitor_SMD:C_0603_1608Metric_Pad1.05x0.95mm_HandSolder" H 3913 1625 50  0001 C CNN
F 3 "~" H 3875 1775 50  0001 C CNN
	1    3875 1775
	-1   0    0    1   
$EndComp
Wire Wire Line
	4250 1625 4250 1550
Wire Wire Line
	4975 1550 4975 1950
Wire Wire Line
	4250 1550 3875 1550
Wire Wire Line
	3875 1550 3875 1625
Connection ~ 4250 1550
$Comp
L power:+3V3 #PWR0105
U 1 1 5E712FEF
P 3875 1450
F 0 "#PWR0105" H 3875 1300 50  0001 C CNN
F 1 "+3V3" H 3890 1623 50  0000 C CNN
F 2 "" H 3875 1450 50  0001 C CNN
F 3 "" H 3875 1450 50  0001 C CNN
	1    3875 1450
	1    0    0    -1  
$EndComp
Wire Wire Line
	3875 1450 3875 1550
Connection ~ 3875 1550
$Comp
L power:GND #PWR0106
U 1 1 5E715638
P 3875 2100
F 0 "#PWR0106" H 3875 1850 50  0001 C CNN
F 1 "GND" H 3880 1927 50  0000 C CNN
F 2 "" H 3875 2100 50  0001 C CNN
F 3 "" H 3875 2100 50  0001 C CNN
	1    3875 2100
	1    0    0    -1  
$EndComp
Wire Wire Line
	3875 2100 3875 2000
Wire Wire Line
	3875 2000 4250 2000
Wire Wire Line
	4250 2000 4250 1925
Connection ~ 3875 2000
Wire Wire Line
	3875 2000 3875 1925
$Comp
L power:GND #PWR0107
U 1 1 5E717B8F
P 4975 4675
F 0 "#PWR0107" H 4975 4425 50  0001 C CNN
F 1 "GND" H 4980 4502 50  0000 C CNN
F 2 "" H 4975 4675 50  0001 C CNN
F 3 "" H 4975 4675 50  0001 C CNN
	1    4975 4675
	1    0    0    -1  
$EndComp
Wire Wire Line
	4975 4675 4975 4600
Wire Wire Line
	4875 4550 4875 4600
Wire Wire Line
	4875 4600 4975 4600
Connection ~ 4975 4600
Wire Wire Line
	4975 4600 4975 4550
Wire Wire Line
	5075 4600 5075 4550
Wire Wire Line
	4975 4600 5075 4600
$Comp
L Device:R_Small R5
U 1 1 5E71EA95
P 6175 2250
F 0 "R5" V 5979 2250 50  0000 C CNN
F 1 "10k" V 6070 2250 50  0000 C CNN
F 2 "Resistor_SMD:R_0603_1608Metric_Pad1.05x0.95mm_HandSolder" H 6175 2250 50  0001 C CNN
F 3 "~" H 6175 2250 50  0001 C CNN
	1    6175 2250
	0    1    1    0   
$EndComp
Wire Wire Line
	6075 2250 5875 2250
$Comp
L power:+3V3 #PWR0108
U 1 1 5E720747
P 6425 2075
F 0 "#PWR0108" H 6425 1925 50  0001 C CNN
F 1 "+3V3" H 6440 2248 50  0000 C CNN
F 2 "" H 6425 2075 50  0001 C CNN
F 3 "" H 6425 2075 50  0001 C CNN
	1    6425 2075
	1    0    0    -1  
$EndComp
Wire Wire Line
	6275 2250 6425 2250
Wire Wire Line
	6425 2250 6425 2075
$Comp
L Device:C C5
U 1 1 5E722100
P 5875 1925
F 0 "C5" H 5760 1879 50  0000 R CNN
F 1 "0.1u" H 5760 1970 50  0000 R CNN
F 2 "Capacitor_SMD:C_0603_1608Metric_Pad1.05x0.95mm_HandSolder" H 5913 1775 50  0001 C CNN
F 3 "~" H 5875 1925 50  0001 C CNN
	1    5875 1925
	-1   0    0    1   
$EndComp
Connection ~ 5875 2250
Wire Wire Line
	5875 2250 5575 2250
$Comp
L power:GND #PWR0109
U 1 1 5E722510
P 5875 1600
F 0 "#PWR0109" H 5875 1350 50  0001 C CNN
F 1 "GND" H 5880 1427 50  0000 C CNN
F 2 "" H 5875 1600 50  0001 C CNN
F 3 "" H 5875 1600 50  0001 C CNN
	1    5875 1600
	-1   0    0    1   
$EndComp
Wire Wire Line
	5875 1600 5875 1775
Wire Wire Line
	5575 3050 5975 3050
Wire Wire Line
	5575 2850 5975 2850
Text GLabel 6125 2350 2    50   Input ~ 0
EN
Wire Wire Line
	6125 2350 5875 2350
Wire Wire Line
	5875 2350 5875 2250
Text GLabel 4200 2250 0    50   Input ~ 0
IO00
Wire Wire Line
	4200 2250 4375 2250
Wire Wire Line
	4250 1550 4975 1550
$Comp
L power:+3V3 #PWR0110
U 1 1 5E74865A
P 6975 2750
F 0 "#PWR0110" H 6975 2600 50  0001 C CNN
F 1 "+3V3" V 6990 2878 50  0000 L CNN
F 2 "" H 6975 2750 50  0001 C CNN
F 3 "" H 6975 2750 50  0001 C CNN
	1    6975 2750
	0    1    1    0   
$EndComp
Wire Wire Line
	6975 2750 6875 2750
$Comp
L power:GND #PWR0111
U 1 1 5E74A473
P 6975 3050
F 0 "#PWR0111" H 6975 2800 50  0001 C CNN
F 1 "GND" V 6980 2922 50  0000 R CNN
F 2 "" H 6975 3050 50  0001 C CNN
F 3 "" H 6975 3050 50  0001 C CNN
	1    6975 3050
	0    -1   -1   0   
$EndComp
Wire Wire Line
	6975 3050 6850 3050
$Comp
L power:GND #PWR0112
U 1 1 5E751F29
P 7875 3650
F 0 "#PWR0112" H 7875 3400 50  0001 C CNN
F 1 "GND" H 7880 3477 50  0000 C CNN
F 2 "" H 7875 3650 50  0001 C CNN
F 3 "" H 7875 3650 50  0001 C CNN
	1    7875 3650
	1    0    0    -1  
$EndComp
Wire Wire Line
	7875 3650 7875 3575
Wire Wire Line
	7875 3575 7625 3575
Wire Wire Line
	7625 3575 7625 3750
Wire Wire Line
	7625 3575 7525 3575
Wire Wire Line
	7525 3575 7525 3750
Connection ~ 7625 3575
Text GLabel 7150 4350 0    50   Input ~ 0
VBUS
Wire Wire Line
	7150 4350 7225 4350
$Comp
L Regulator_Linear:AP2112K-3.3 U2
U 1 1 5E758A49
P 9475 2700
F 0 "U2" H 9475 3042 50  0000 C CNN
F 1 "AP2112K-3.3" H 9475 2951 50  0000 C CNN
F 2 "Package_TO_SOT_SMD:SOT-23-5_HandSoldering" H 9475 3025 50  0001 C CNN
F 3 "https://www.diodes.com/assets/Datasheets/AP2112.pdf" H 9475 2800 50  0001 C CNN
	1    9475 2700
	1    0    0    -1  
$EndComp
Text GLabel 8500 2600 0    50   Input ~ 0
VBUS
$Comp
L Device:R_Small R9
U 1 1 5E760586
P 9025 2700
F 0 "R9" V 9025 2700 50  0000 C CNN
F 1 "10k" V 9100 2700 50  0000 C CNN
F 2 "Resistor_SMD:R_0603_1608Metric_Pad1.05x0.95mm_HandSolder" H 9025 2700 50  0001 C CNN
F 3 "~" H 9025 2700 50  0001 C CNN
	1    9025 2700
	0    1    1    0   
$EndComp
Wire Wire Line
	9125 2700 9175 2700
Wire Wire Line
	8925 2700 8875 2700
Wire Wire Line
	8875 2700 8875 2600
Wire Wire Line
	8875 2600 9175 2600
$Comp
L power:+3V3 #PWR0113
U 1 1 5E76520B
P 9900 2525
F 0 "#PWR0113" H 9900 2375 50  0001 C CNN
F 1 "+3V3" H 9915 2698 50  0000 C CNN
F 2 "" H 9900 2525 50  0001 C CNN
F 3 "" H 9900 2525 50  0001 C CNN
	1    9900 2525
	1    0    0    -1  
$EndComp
Wire Wire Line
	9900 2525 9900 2600
Wire Wire Line
	9900 2600 9775 2600
$Comp
L power:GND #PWR0114
U 1 1 5E76751E
P 9475 3100
F 0 "#PWR0114" H 9475 2850 50  0001 C CNN
F 1 "GND" H 9480 2927 50  0000 C CNN
F 2 "" H 9475 3100 50  0001 C CNN
F 3 "" H 9475 3100 50  0001 C CNN
	1    9475 3100
	1    0    0    -1  
$EndComp
Wire Wire Line
	9475 3100 9475 3000
Wire Wire Line
	9175 3150 9175 2700
Connection ~ 9175 2700
$Comp
L power:GND #PWR0115
U 1 1 5E7865A0
P 9175 3725
F 0 "#PWR0115" H 9175 3475 50  0001 C CNN
F 1 "GND" H 9180 3552 50  0000 C CNN
F 2 "" H 9175 3725 50  0001 C CNN
F 3 "" H 9175 3725 50  0001 C CNN
	1    9175 3725
	1    0    0    -1  
$EndComp
Wire Wire Line
	9175 3725 9175 3550
Text GLabel 6925 2625 2    50   Input ~ 0
SOIC_3V3
Wire Wire Line
	6925 2625 6875 2625
Wire Wire Line
	6875 2625 6875 2750
Connection ~ 6875 2750
Wire Wire Line
	6875 2750 6850 2750
Text GLabel 8750 3450 0    50   Input ~ 0
SOIC_3V3
Wire Wire Line
	8750 3450 8875 3450
$Comp
L dk_Transistors-FETs-MOSFETs-Single:DMG1012T-7 Q1
U 1 1 5E78E669
P 9175 3350
F 0 "Q1" H 9283 3403 60  0000 L CNN
F 1 "DMG1012T-7" H 9283 3297 60  0000 L CNN
F 2 "digikey-footprints:SOT-523" H 9375 3550 60  0001 L CNN
F 3 "https://www.diodes.com/assets/Datasheets/ds31783.pdf" H 9375 3650 60  0001 L CNN
F 4 "DMG1012T-7DICT-ND" H 9375 3750 60  0001 L CNN "Digi-Key_PN"
F 5 "DMG1012T-7" H 9375 3850 60  0001 L CNN "MPN"
F 6 "Discrete Semiconductor Products" H 9375 3950 60  0001 L CNN "Category"
F 7 "Transistors - FETs, MOSFETs - Single" H 9375 4050 60  0001 L CNN "Family"
F 8 "https://www.diodes.com/assets/Datasheets/ds31783.pdf" H 9375 4150 60  0001 L CNN "DK_Datasheet_Link"
F 9 "/product-detail/en/diodes-incorporated/DMG1012T-7/DMG1012T-7DICT-ND/2181232" H 9375 4250 60  0001 L CNN "DK_Detail_Page"
F 10 "MOSFET N-CH 20V 630MA SOT-523" H 9375 4350 60  0001 L CNN "Description"
F 11 "Diodes Incorporated" H 9375 4450 60  0001 L CNN "Manufacturer"
F 12 "Active" H 9375 4550 60  0001 L CNN "Status"
	1    9175 3350
	1    0    0    -1  
$EndComp
Text Notes 8350 3750 0    50   ~ 0
Disable regulator\nif SOIC is providing\npower\n
Text GLabel 7025 2850 2    50   Input ~ 0
EN
Wire Wire Line
	7025 2850 6850 2850
Text GLabel 7025 2950 2    50   Input ~ 0
IO0
Wire Wire Line
	7025 2950 6850 2950
Wire Wire Line
	5875 2075 5875 2250
Text GLabel 6950 1975 0    50   Input ~ 0
EN
$Comp
L Device:R_Small R8
U 1 1 5E7AE4F1
P 7125 1975
F 0 "R8" V 6929 1975 50  0000 C CNN
F 1 "0" V 7020 1975 50  0000 C CNN
F 2 "Resistor_SMD:R_0603_1608Metric_Pad1.05x0.95mm_HandSolder" H 7125 1975 50  0001 C CNN
F 3 "~" H 7125 1975 50  0001 C CNN
	1    7125 1975
	0    1    1    0   
$EndComp
Wire Wire Line
	7225 1975 7275 1975
Wire Wire Line
	7025 1975 6950 1975
$Comp
L power:GND #PWR0116
U 1 1 5E7B3C8D
P 7900 2150
F 0 "#PWR0116" H 7900 1900 50  0001 C CNN
F 1 "GND" H 7905 1977 50  0000 C CNN
F 2 "" H 7900 2150 50  0001 C CNN
F 3 "" H 7900 2150 50  0001 C CNN
	1    7900 2150
	1    0    0    -1  
$EndComp
Wire Wire Line
	7700 1975 7900 1975
Wire Wire Line
	7900 1975 7900 2125
$Comp
L Device:C C8
U 1 1 5E7B68B2
P 7500 2125
F 0 "C8" V 7300 2125 50  0000 C CNN
F 1 "0.1u" V 7375 2125 50  0000 C CNN
F 2 "Capacitor_SMD:C_0603_1608Metric_Pad1.05x0.95mm_HandSolder" H 7538 1975 50  0001 C CNN
F 3 "~" H 7500 2125 50  0001 C CNN
	1    7500 2125
	0    -1   -1   0   
$EndComp
Wire Wire Line
	7275 1975 7275 2125
Wire Wire Line
	7275 2125 7350 2125
Connection ~ 7275 1975
Wire Wire Line
	7275 1975 7300 1975
Wire Wire Line
	7650 2125 7900 2125
Connection ~ 7900 2125
Wire Wire Line
	7900 2125 7900 2150
Text GLabel 4200 2350 0    50   Input ~ 0
IO01
Wire Wire Line
	4200 2350 4375 2350
Text GLabel 4200 2450 0    50   Input ~ 0
IO02
Wire Wire Line
	4200 2450 4375 2450
Text GLabel 4200 2550 0    50   Input ~ 0
IO03
Wire Wire Line
	4200 2550 4375 2550
Text GLabel 4200 2650 0    50   Input ~ 0
IO04
Text GLabel 4200 2750 0    50   Input ~ 0
IO05
Wire Wire Line
	4200 2750 4375 2750
Text GLabel 4200 2850 0    50   Input ~ 0
IO06
Wire Wire Line
	4200 2850 4375 2850
Wire Wire Line
	4200 2950 4375 2950
Text GLabel 4200 3050 0    50   Input ~ 0
IO08
Wire Wire Line
	4200 3050 4375 3050
Text GLabel 4200 3150 0    50   Input ~ 0
IO09
Wire Wire Line
	4200 3150 4375 3150
Text GLabel 4200 3250 0    50   Input ~ 0
IO10
Wire Wire Line
	4200 3250 4375 3250
Text GLabel 4200 3350 0    50   Input ~ 0
IO11
Wire Wire Line
	4200 3350 4375 3350
Text GLabel 4200 3450 0    50   Input ~ 0
IO12
Wire Wire Line
	4200 3450 4375 3450
Text GLabel 4200 3550 0    50   Input ~ 0
IO13
Wire Wire Line
	4200 3550 4375 3550
Text GLabel 4200 3650 0    50   Input ~ 0
IO14
Wire Wire Line
	4200 3650 4375 3650
Text GLabel 4200 2950 0    50   Input ~ 0
IO07
Text GLabel 4200 3950 0    50   Input ~ 0
IO17
Wire Wire Line
	4200 3950 4375 3950
Text GLabel 4200 4050 0    50   Input ~ 0
IO18
Connection ~ 4300 4050
Wire Wire Line
	4200 4050 4300 4050
$Comp
L Jumper:SolderJumper_2_Bridged JP1
U 1 1 5E82546A
P 3625 3375
F 0 "JP1" H 3625 3580 50  0000 C CNN
F 1 "jump" H 3625 3489 50  0000 C CNN
F 2 "Jumper:SolderJumper-2_P1.3mm_Bridged_RoundedPad1.0x1.5mm" H 3625 3375 50  0001 C CNN
F 3 "~" H 3625 3375 50  0001 C CNN
	1    3625 3375
	1    0    0    -1  
$EndComp
Wire Wire Line
	3450 3750 3850 3750
Wire Wire Line
	3775 3375 3850 3375
Wire Wire Line
	3850 3375 3850 3750
Connection ~ 3850 3750
Wire Wire Line
	3850 3750 4375 3750
Wire Wire Line
	3450 3850 3850 3850
Text GLabel 2125 3050 0    50   Input ~ 0
IO16
Text Notes 3750 4475 0    39   ~ 0
Requires pull-up\nPage 19 Notes
$Comp
L Jumper:SolderJumper_2_Bridged JP2
U 1 1 5E856D10
P 3625 4150
F 0 "JP2" H 3625 4355 50  0000 C CNN
F 1 "jump" H 3625 4264 50  0000 C CNN
F 2 "Jumper:SolderJumper-2_P1.3mm_Bridged_RoundedPad1.0x1.5mm" H 3625 4150 50  0001 C CNN
F 3 "~" H 3625 4150 50  0001 C CNN
	1    3625 4150
	1    0    0    -1  
$EndComp
Wire Wire Line
	3775 4150 3850 4150
Wire Wire Line
	3850 4150 3850 3850
Connection ~ 3850 3850
Text GLabel 6325 4425 2    50   Input ~ 0
IO19
$Comp
L Jumper:SolderJumper_2_Bridged JP3
U 1 1 5E862443
P 6025 4425
F 0 "JP3" H 6025 4630 50  0000 C CNN
F 1 "jump" H 6025 4539 50  0000 C CNN
F 2 "Jumper:SolderJumper-2_P1.3mm_Bridged_RoundedPad1.0x1.5mm" H 6025 4425 50  0001 C CNN
F 3 "~" H 6025 4425 50  0001 C CNN
	1    6025 4425
	-1   0    0    1   
$EndComp
Wire Wire Line
	6175 4425 6325 4425
Wire Wire Line
	5875 4425 5750 4425
Wire Wire Line
	5750 4425 5750 4150
Connection ~ 5750 4150
Wire Wire Line
	5750 4150 5925 4150
Text GLabel 6750 3775 2    50   Input ~ 0
IO20
$Comp
L Jumper:SolderJumper_2_Bridged JP4
U 1 1 5E87D78A
P 6450 3775
F 0 "JP4" H 6450 3980 50  0000 C CNN
F 1 "jump" H 6450 3889 50  0000 C CNN
F 2 "Jumper:SolderJumper-2_P1.3mm_Bridged_RoundedPad1.0x1.5mm" H 6450 3775 50  0001 C CNN
F 3 "~" H 6450 3775 50  0001 C CNN
	1    6450 3775
	-1   0    0    1   
$EndComp
Wire Wire Line
	6600 3775 6750 3775
Wire Wire Line
	5875 3775 6300 3775
Connection ~ 5875 4050
Text GLabel 5625 3950 2    50   Input ~ 0
IO21
Wire Wire Line
	5575 3950 5625 3950
Text GLabel 5625 3850 2    50   Input ~ 0
IO26
Wire Wire Line
	5575 3850 5625 3850
Text GLabel 5625 3650 2    50   Input ~ 0
IO33
Wire Wire Line
	5575 3650 5625 3650
Text GLabel 5625 3550 2    50   Input ~ 0
IO34
Wire Wire Line
	5575 3550 5625 3550
Text GLabel 5625 3450 2    50   Input ~ 0
IO35
Wire Wire Line
	5575 3450 5625 3450
Text GLabel 5625 3350 2    50   Input ~ 0
IO36
Wire Wire Line
	5575 3350 5625 3350
Text GLabel 5625 3250 2    50   Input ~ 0
IO37
Wire Wire Line
	5575 3250 5625 3250
Text GLabel 5625 3150 2    50   Input ~ 0
IO38
Wire Wire Line
	5575 3150 5625 3150
Text GLabel 6025 3150 2    50   Input ~ 0
IO39
Wire Wire Line
	5975 3150 6025 3150
Wire Wire Line
	5975 3150 5975 3050
Connection ~ 5975 3050
Text GLabel 6025 3000 2    50   Input ~ 0
IO40
Wire Wire Line
	6025 3000 5975 3000
Wire Wire Line
	5975 3000 5975 2950
Connection ~ 5975 2950
Wire Wire Line
	5975 2950 5575 2950
Text GLabel 6025 2900 2    50   Input ~ 0
IO41
Wire Wire Line
	6025 2900 5975 2900
Wire Wire Line
	5975 2900 5975 2850
Connection ~ 5975 2850
Text GLabel 6025 2675 2    50   Input ~ 0
IO42
Wire Wire Line
	5975 2675 6025 2675
Wire Wire Line
	5975 2675 5975 2750
Connection ~ 5975 2750
Wire Wire Line
	5575 2750 5975 2750
Text GLabel 5625 2650 2    50   Input ~ 0
IO43
Wire Wire Line
	5575 2650 5625 2650
Text GLabel 5625 2550 2    50   Input ~ 0
IO44
Wire Wire Line
	5575 2550 5625 2550
Text GLabel 5625 2450 2    50   Input ~ 0
IO45
Wire Wire Line
	5575 2450 5625 2450
Text GLabel 5625 2350 2    50   Input ~ 0
I46
Wire Wire Line
	5575 2350 5625 2350
$Comp
L Connector_Generic:Conn_02x20_Counter_Clockwise J1
U 1 1 5E92B3C0
P 2500 2050
F 0 "J1" H 2550 3167 50  0000 C CNN
F 1 "Conn_02x20_Counter_Clockwise" H 2550 3076 50  0000 C CNN
F 2 "Connector_PinHeader_2.54mm:PinHeader_2x20_P2.54mm_Vertical" H 2500 2050 50  0001 C CNN
F 3 "~" H 2500 2050 50  0001 C CNN
	1    2500 2050
	1    0    0    -1  
$EndComp
Wire Wire Line
	8500 2600 8625 2600
Connection ~ 8875 2600
$Comp
L Device:C C9
U 1 1 5E94DB9A
P 8625 2750
F 0 "C9" H 8510 2704 50  0000 R CNN
F 1 "1u" H 8510 2795 50  0000 R CNN
F 2 "Capacitor_SMD:C_0603_1608Metric_Pad1.05x0.95mm_HandSolder" H 8663 2600 50  0001 C CNN
F 3 "~" H 8625 2750 50  0001 C CNN
	1    8625 2750
	-1   0    0    1   
$EndComp
Connection ~ 8625 2600
Wire Wire Line
	8625 2600 8875 2600
$Comp
L Device:C C10
U 1 1 5E94EE05
P 9900 2825
F 0 "C10" H 9785 2779 50  0000 R CNN
F 1 "1u" H 9785 2870 50  0000 R CNN
F 2 "Capacitor_SMD:C_0603_1608Metric_Pad1.05x0.95mm_HandSolder" H 9938 2675 50  0001 C CNN
F 3 "~" H 9900 2825 50  0001 C CNN
	1    9900 2825
	-1   0    0    1   
$EndComp
Wire Wire Line
	9900 2675 9900 2600
Connection ~ 9900 2600
$Comp
L power:GND #PWR0117
U 1 1 5E9588FF
P 9900 3075
F 0 "#PWR0117" H 9900 2825 50  0001 C CNN
F 1 "GND" H 9905 2902 50  0000 C CNN
F 2 "" H 9900 3075 50  0001 C CNN
F 3 "" H 9900 3075 50  0001 C CNN
	1    9900 3075
	1    0    0    -1  
$EndComp
Wire Wire Line
	9900 3075 9900 2975
$Comp
L power:GND #PWR0118
U 1 1 5E9605CF
P 8625 3000
F 0 "#PWR0118" H 8625 2750 50  0001 C CNN
F 1 "GND" H 8630 2827 50  0000 C CNN
F 2 "" H 8625 3000 50  0001 C CNN
F 3 "" H 8625 3000 50  0001 C CNN
	1    8625 3000
	1    0    0    -1  
$EndComp
Wire Wire Line
	8625 3000 8625 2900
Text GLabel 2125 1450 0    50   Input ~ 0
IO00
Wire Wire Line
	2125 1450 2300 1450
Text GLabel 2125 1550 0    50   Input ~ 0
IO01
Wire Wire Line
	2125 1550 2300 1550
Text GLabel 2125 1650 0    50   Input ~ 0
IO02
Wire Wire Line
	2125 1650 2300 1650
Text GLabel 2125 1750 0    50   Input ~ 0
IO03
Wire Wire Line
	2125 1750 2300 1750
Text GLabel 2125 1850 0    50   Input ~ 0
IO04
Wire Wire Line
	2125 1850 2300 1850
Text GLabel 2125 1950 0    50   Input ~ 0
IO05
Wire Wire Line
	2125 1950 2300 1950
Text GLabel 2125 2050 0    50   Input ~ 0
IO06
Wire Wire Line
	2125 2050 2300 2050
Wire Wire Line
	2125 2150 2300 2150
Text GLabel 2125 2250 0    50   Input ~ 0
IO08
Wire Wire Line
	2125 2250 2300 2250
Text GLabel 2125 2350 0    50   Input ~ 0
IO09
Wire Wire Line
	2125 2350 2300 2350
Text GLabel 2125 2450 0    50   Input ~ 0
IO10
Wire Wire Line
	2125 2450 2300 2450
Text GLabel 2125 2550 0    50   Input ~ 0
IO11
Wire Wire Line
	2125 2550 2300 2550
Text GLabel 2125 2650 0    50   Input ~ 0
IO12
Wire Wire Line
	2125 2650 2300 2650
Text GLabel 2125 2750 0    50   Input ~ 0
IO13
Wire Wire Line
	2125 2750 2300 2750
Text GLabel 2125 2850 0    50   Input ~ 0
IO14
Wire Wire Line
	2125 2850 2300 2850
Text GLabel 2125 2150 0    50   Input ~ 0
IO07
Wire Wire Line
	3325 3375 3475 3375
Text GLabel 3325 3375 0    50   Input ~ 0
IO15
Text GLabel 2125 2950 0    50   Input ~ 0
IO15
Text GLabel 3325 4150 0    50   Input ~ 0
IO16
Wire Wire Line
	3475 4150 3325 4150
Text GLabel 2975 3050 2    50   Input ~ 0
IO17
Wire Wire Line
	2975 3050 2800 3050
Text GLabel 2975 2950 2    50   Input ~ 0
IO18
Wire Wire Line
	2975 2950 2800 2950
Text GLabel 2975 2850 2    50   Input ~ 0
IO19
Text GLabel 2975 2650 2    50   Input ~ 0
IO21
Text GLabel 2975 2550 2    50   Input ~ 0
IO26
Text GLabel 2975 2450 2    50   Input ~ 0
IO33
Text GLabel 2975 2350 2    50   Input ~ 0
IO34
Text GLabel 2975 2250 2    50   Input ~ 0
IO35
Text GLabel 2975 2150 2    50   Input ~ 0
IO36
Text GLabel 2975 2050 2    50   Input ~ 0
IO37
Text GLabel 2975 1950 2    50   Input ~ 0
IO38
Text GLabel 2975 1850 2    50   Input ~ 0
IO39
Text GLabel 2975 1750 2    50   Input ~ 0
IO40
Text GLabel 2975 1650 2    50   Input ~ 0
IO41
Text GLabel 2975 1550 2    50   Input ~ 0
IO39
Text GLabel 2975 1450 2    50   Input ~ 0
IO43
Text GLabel 2975 1350 2    50   Input ~ 0
IO44
Text GLabel 2975 1250 2    50   Input ~ 0
IO45
$Comp
L power:+3V3 #PWR0119
U 1 1 5EA7DF74
P 2125 1150
F 0 "#PWR0119" H 2125 1000 50  0001 C CNN
F 1 "+3V3" V 2140 1278 50  0000 L CNN
F 2 "" H 2125 1150 50  0001 C CNN
F 3 "" H 2125 1150 50  0001 C CNN
	1    2125 1150
	0    -1   -1   0   
$EndComp
$Comp
L power:GND #PWR0120
U 1 1 5EA8D1C9
P 2125 1250
F 0 "#PWR0120" H 2125 1000 50  0001 C CNN
F 1 "GND" V 2130 1122 50  0000 R CNN
F 2 "" H 2125 1250 50  0001 C CNN
F 3 "" H 2125 1250 50  0001 C CNN
	1    2125 1250
	0    1    1    0   
$EndComp
Text GLabel 2975 2750 2    50   Input ~ 0
IO20
Wire Wire Line
	2125 2950 2300 2950
Wire Wire Line
	2125 3050 2300 3050
Wire Wire Line
	2300 1150 2125 1150
Wire Wire Line
	2300 1250 2125 1250
Wire Wire Line
	2300 1350 2125 1350
Wire Wire Line
	2800 1250 2975 1250
Wire Wire Line
	2800 1350 2975 1350
Wire Wire Line
	2800 1450 2975 1450
Wire Wire Line
	2800 1550 2975 1550
Wire Wire Line
	2800 1650 2975 1650
Wire Wire Line
	2800 1750 2975 1750
Wire Wire Line
	2800 1850 2975 1850
Wire Wire Line
	2800 1950 2975 1950
Wire Wire Line
	2800 2050 2975 2050
Wire Wire Line
	2800 2150 2975 2150
Wire Wire Line
	2800 2250 2975 2250
Wire Wire Line
	2800 2350 2975 2350
Wire Wire Line
	2800 2650 2975 2650
Wire Wire Line
	2800 2750 2975 2750
Wire Wire Line
	2800 2850 2975 2850
Wire Wire Line
	2800 2450 2975 2450
Wire Wire Line
	2800 2550 2975 2550
Text GLabel 2125 1350 0    50   Input ~ 0
EN
$Comp
L Switch:SW_Push SW1
U 1 1 5EBF16C8
P 7500 1975
F 0 "SW1" H 7500 2260 50  0000 C CNN
F 1 "SW_Push" H 7500 2169 50  0000 C CNN
F 2 "Button_Switch_SMD:SW_SPST_PTS645" H 7500 2175 50  0001 C CNN
F 3 "~" H 7500 2175 50  0001 C CNN
	1    7500 1975
	1    0    0    -1  
$EndComp
Wire Wire Line
	5975 3050 6350 3050
Wire Wire Line
	6350 2950 5975 2950
Wire Wire Line
	5975 2850 6350 2850
Wire Wire Line
	6350 2750 5975 2750
$Comp
L Connector_Generic:Conn_02x04_Top_Bottom J2
U 1 1 5EC3250A
P 6550 2850
F 0 "J2" H 6600 3167 50  0000 C CNN
F 1 "Conn_02x04_Top_Bottom" H 6600 3076 50  0000 C CNN
F 2 "Connector_PinHeader_2.54mm:PinHeader_2x04_P2.54mm_Vertical" H 6550 2850 50  0001 C CNN
F 3 "~" H 6550 2850 50  0001 C CNN
	1    6550 2850
	1    0    0    -1  
$EndComp
Wire Wire Line
	5875 3775 5875 4050
Wire Wire Line
	3850 3850 4375 3850
Wire Wire Line
	4200 2650 4375 2650
$Comp
L ESP32-S2-Devboard-rescue:ESP32-S2-WROVER-RF_Module U1
U 1 1 5E6E7536
P 4975 3250
F 0 "U1" H 4525 4500 50  0000 C CNN
F 1 "ESP32-S2-WROVER" H 5400 4500 50  0000 C CNN
F 2 "RF_Module:ESP32-S2-WROVER" H 5775 2000 50  0001 C CNN
F 3 "https://www.espressif.com/sites/default/files/documentation/esp32-s2-wroom_esp32-s2-wroom-i_datasheet_en.pdf" H 4675 2550 50  0001 C CNN
	1    4975 3250
	1    0    0    -1  
$EndComp
Wire Wire Line
	5075 4600 5175 4600
Wire Wire Line
	5175 4600 5175 4550
Connection ~ 5075 4600
$EndSCHEMATC
